{
  "formatVersion": 1,
  "database": {
    "version": 38,
    "identityHash": "bf9f23381f04103eeccd4a2f498b1228",
    "entities": [
      {
        "tableName": "customer",
        "createSql": "CREATE TABLE IF NOT EXISTS `${TABLE_NAME}` (`customer_id` INTEGER PRIMARY KEY AUTOINCREMENT NOT NULL, `customer_types_id` INTEGER NOT NULL, `areas_id` INTEGER NOT NULL, `img_path` TEXT, `name` TEXT, `address_no` TEXT, `address_1` TEXT, `address_2` TEXT, `street` TEXT, `contact_name` TEXT, `mobile` TEXT, `landline` TEXT, `latitude` TEXT, `longitude` TEXT, `dob` TEXT, `remarks` TEXT, `created` TEXT, `customer_flag` INTEGER, `customer_type_id` INTEGER NOT NULL, `customer_type_name` TEXT)",
        "fields": [
          {
            "fieldPath": "id",
            "columnName": "customer_id",
            "affinity": "INTEGER",
            "notNull": true
          },
          {
            "fieldPath": "customerTypeId",
            "columnName": "customer_types_id",
            "affinity": "INTEGER",
            "notNull": true
          },
          {
            "fieldPath": "areaId",
            "columnName": "areas_id",
            "affinity": "INTEGER",
            "notNull": true
          },
          {
            "fieldPath": "imagePath",
            "columnName": "img_path",
            "affinity": "TEXT",
            "notNull": false
          },
          {
            "fieldPath": "name",
            "columnName": "name",
            "affinity": "TEXT",
            "notNull": false
          },
          {
            "fieldPath": "addressNo",
            "columnName": "address_no",
            "affinity": "TEXT",
            "notNull": false
          },
          {
            "fieldPath": "address1",
            "columnName": "address_1",
            "affinity": "TEXT",
            "notNull": false
          },
          {
            "fieldPath": "address2",
            "columnName": "address_2",
            "affinity": "TEXT",
            "notNull": false
          },
          {
            "fieldPath": "street",
            "columnName": "street",
            "affinity": "TEXT",
            "notNull": false
          },
          {
            "fieldPath": "contactName",
            "columnName": "contact_name",
            "affinity": "TEXT",
            "notNull": false
          },
          {
            "fieldPath": "mobile",
            "columnName": "mobile",
            "affinity": "TEXT",
            "notNull": false
          },
          {
            "fieldPath": "landline",
            "columnName": "landline",
            "affinity": "TEXT",
            "notNull": false
          },
          {
            "fieldPath": "latitude",
            "columnName": "latitude",
            "affinity": "TEXT",
            "notNull": false
          },
          {
            "fieldPath": "longitude",
            "columnName": "longitude",
            "affinity": "TEXT",
            "notNull": false
          },
          {
            "fieldPath": "dob",
            "columnName": "dob",
            "affinity": "TEXT",
            "notNull": false
          },
          {
            "fieldPath": "remarks",
            "columnName": "remarks",
            "affinity": "TEXT",
            "notNull": false
          },
          {
            "fieldPath": "created",
            "columnName": "created",
            "affinity": "TEXT",
            "notNull": false
          },
          {
            "fieldPath": "fustomerFlag",
            "columnName": "customer_flag",
            "affinity": "INTEGER",
            "notNull": false
          },
          {
            "fieldPath": "customer_type_id",
            "columnName": "customer_type_id",
            "affinity": "INTEGER",
            "notNull": true
          },
          {
            "fieldPath": "customer_type_name",
            "columnName": "customer_type_name",
            "affinity": "TEXT",
            "notNull": false
          }
        ],
        "primaryKey": {
          "columnNames": [
            "customer_id"
          ],
          "autoGenerate": true
        },
        "indices": [],
        "foreignKeys": []
      },
      {
        "tableName": "customer_type",
        "createSql": "CREATE TABLE IF NOT EXISTS `${TABLE_NAME}` (`customer_types_id` INTEGER NOT NULL, `customer_type_name` TEXT, PRIMARY KEY(`customer_types_id`))",
        "fields": [
          {
            "fieldPath": "customer_type_id",
            "columnName": "customer_types_id",
            "affinity": "INTEGER",
            "notNull": true
          },
          {
            "fieldPath": "customer_type_name",
            "columnName": "customer_type_name",
            "affinity": "TEXT",
            "notNull": false
          }
        ],
        "primaryKey": {
          "columnNames": [
            "customer_types_id"
          ],
          "autoGenerate": false
        },
        "indices": [],
        "foreignKeys": []
      },
      {
        "tableName": "invoice",
        "createSql": "CREATE TABLE IF NOT EXISTS `${TABLE_NAME}` (`invoice_code` INTEGER NOT NULL, `customer_id` INTEGER NOT NULL, `device_id` INTEGER NOT NULL, `eff_date` TEXT, `invoice_discount_total` REAL NOT NULL, `invoice_net_total` REAL NOT NULL, `invoice_return_total` REAL NOT NULL, `invoice_total` REAL NOT NULL, `invoice_other_discount` REAL NOT NULL, `created` TEXT, `synced` TEXT, `is_synced` INTEGER NOT NULL, `flag` INTEGER NOT NULL, PRIMARY KEY(`invoice_code`))",
        "fields": [
          {
            "fieldPath": "invoice_code",
            "columnName": "invoice_code",
            "affinity": "INTEGER",
            "notNull": true
          },
          {
            "fieldPath": "customerId",
            "columnName": "customer_id",
            "affinity": "INTEGER",
            "notNull": true
          },
          {
            "fieldPath": "deviceId",
            "columnName": "device_id",
            "affinity": "INTEGER",
            "notNull": true
          },
          {
            "fieldPath": "effDate",
            "columnName": "eff_date",
            "affinity": "TEXT",
            "notNull": false
          },
          {
            "fieldPath": "invoice_total_discount",
            "columnName": "invoice_discount_total",
            "affinity": "REAL",
            "notNull": true
          },
          {
            "fieldPath": "invoice_net_total",
            "columnName": "invoice_net_total",
            "affinity": "REAL",
            "notNull": true
          },
          {
            "fieldPath": "invoice_return_total",
            "columnName": "invoice_return_total",
            "affinity": "REAL",
            "notNull": true
          },
          {
            "fieldPath": "invoice_total",
            "columnName": "invoice_total",
            "affinity": "REAL",
            "notNull": true
          },
          {
            "fieldPath": "invoice_other_discount",
            "columnName": "invoice_other_discount",
            "affinity": "REAL",
            "notNull": true
          },
          {
            "fieldPath": "created",
            "columnName": "created",
            "affinity": "TEXT",
            "notNull": false
          },
          {
            "fieldPath": "synced",
            "columnName": "synced",
            "affinity": "TEXT",
            "notNull": false
          },
          {
            "fieldPath": "isSynced",
            "columnName": "is_synced",
            "affinity": "INTEGER",
            "notNull": true
          },
          {
            "fieldPath": "flag",
            "columnName": "flag",
            "affinity": "INTEGER",
            "notNull": true
          }
        ],
        "primaryKey": {
          "columnNames": [
            "invoice_code"
          ],
          "autoGenerate": false
        },
        "indices": [],
        "foreignKeys": []
      },
      {
        "tableName": "invoice_item",
        "createSql": "CREATE TABLE IF NOT EXISTS `${TABLE_NAME}` (`invoice_item_id` INTEGER PRIMARY KEY AUTOINCREMENT NOT NULL, `invoice_id` INTEGER NOT NULL, `device_id ` INTEGER NOT NULL, `customer_id` INTEGER NOT NULL, `items_id` INTEGER NOT NULL, `invoice_item_mrp` REAL NOT NULL, `invoice_item_Amount` REAL NOT NULL, `invoice_item_discount` REAL NOT NULL, `invoice_item_qty_s` REAL NOT NULL, `invoice_item_qty_ns` REAL NOT NULL, `invoice_item_flag` INTEGER NOT NULL, `invoice_item_is_autoLoad` INTEGER NOT NULL, `item_name` TEXT, `selling_price` REAL NOT NULL, `qty` REAL NOT NULL)",
        "fields": [
          {
            "fieldPath": "invoice_item_id",
            "columnName": "invoice_item_id",
            "affinity": "INTEGER",
            "notNull": true
          },
          {
            "fieldPath": "invoiceId",
            "columnName": "invoice_id",
            "affinity": "INTEGER",
            "notNull": true
          },
          {
            "fieldPath": "deviceId",
            "columnName": "device_id ",
            "affinity": "INTEGER",
            "notNull": true
          },
          {
            "fieldPath": "customerId",
            "columnName": "customer_id",
            "affinity": "INTEGER",
            "notNull": true
          },
          {
            "fieldPath": "items_id",
            "columnName": "items_id",
            "affinity": "INTEGER",
            "notNull": true
          },
          {
            "fieldPath": "invoiceItemmrp",
            "columnName": "invoice_item_mrp",
            "affinity": "REAL",
            "notNull": true
          },
          {
            "fieldPath": "invoiceItemAmount",
            "columnName": "invoice_item_Amount",
            "affinity": "REAL",
            "notNull": true
          },
          {
            "fieldPath": "invoice_itemdiscount",
            "columnName": "invoice_item_discount",
            "affinity": "REAL",
            "notNull": true
          },
          {
            "fieldPath": "invoice_item_qty_s",
            "columnName": "invoice_item_qty_s",
            "affinity": "REAL",
            "notNull": true
          },
          {
            "fieldPath": "invoice_item_qty_ns",
            "columnName": "invoice_item_qty_ns",
            "affinity": "REAL",
            "notNull": true
          },
          {
            "fieldPath": "invoice_item_flag",
            "columnName": "invoice_item_flag",
            "affinity": "INTEGER",
            "notNull": true
          },
          {
            "fieldPath": "invoice_item_is_autoLoad",
            "columnName": "invoice_item_is_autoLoad",
            "affinity": "INTEGER",
            "notNull": true
          },
          {
            "fieldPath": "item_name",
            "columnName": "item_name",
            "affinity": "TEXT",
            "notNull": false
          },
          {
            "fieldPath": "selling_price",
            "columnName": "selling_price",
            "affinity": "REAL",
            "notNull": true
          },
          {
            "fieldPath": "qty",
            "columnName": "qty",
            "affinity": "REAL",
            "notNull": true
          }
        ],
        "primaryKey": {
          "columnNames": [
            "invoice_item_id"
          ],
          "autoGenerate": true
        },
        "indices": [],
        "foreignKeys": []
      },
      {
        "tableName": "store_items",
        "createSql": "CREATE TABLE IF NOT EXISTS `${TABLE_NAME}` (`id` INTEGER PRIMARY KEY AUTOINCREMENT NOT NULL, `items_id` INTEGER NOT NULL, `code` TEXT, `item_name` TEXT, `min_price` REAL NOT NULL, `max_price` REAL NOT NULL, `selling_price` REAL NOT NULL, `qty` REAL NOT NULL, `qty_ns` REAL NOT NULL)",
        "fields": [
          {
            "fieldPath": "id",
            "columnName": "id",
            "affinity": "INTEGER",
            "notNull": true
          },
          {
            "fieldPath": "item_id",
            "columnName": "items_id",
            "affinity": "INTEGER",
            "notNull": true
          },
          {
            "fieldPath": "code",
            "columnName": "code",
            "affinity": "TEXT",
            "notNull": false
          },
          {
            "fieldPath": "itemName",
            "columnName": "item_name",
            "affinity": "TEXT",
            "notNull": false
          },
          {
            "fieldPath": "minPrice",
            "columnName": "min_price",
            "affinity": "REAL",
            "notNull": true
          },
          {
            "fieldPath": "maxPrice",
            "columnName": "max_price",
            "affinity": "REAL",
            "notNull": true
          },
          {
            "fieldPath": "sellingPrice",
            "columnName": "selling_price",
            "affinity": "REAL",
            "notNull": true
          },
          {
            "fieldPath": "qty",
            "columnName": "qty",
            "affinity": "REAL",
            "notNull": true
          },
          {
            "fieldPath": "qtyNs",
            "columnName": "qty_ns",
            "affinity": "REAL",
            "notNull": true
          }
        ],
        "primaryKey": {
          "columnNames": [
            "id"
          ],
          "autoGenerate": true
        },
        "indices": [
          {
            "name": "index_store_items_items_id",
            "unique": true,
            "columnNames": [
              "items_id"
            ],
            "createSql": "CREATE UNIQUE INDEX IF NOT EXISTS `index_store_items_items_id` ON `${TABLE_NAME}` (`items_id`)"
          }
        ],
        "foreignKeys": []
      },
      {
        "tableName": "param",
        "createSql": "CREATE TABLE IF NOT EXISTS `${TABLE_NAME}` (`id` INTEGER PRIMARY KEY AUTOINCREMENT NOT NULL, `key` TEXT, `value` TEXT)",
        "fields": [
          {
            "fieldPath": "id",
            "columnName": "id",
            "affinity": "INTEGER",
            "notNull": true
          },
          {
            "fieldPath": "key",
            "columnName": "key",
            "affinity": "TEXT",
            "notNull": false
          },
          {
            "fieldPath": "value",
            "columnName": "value",
            "affinity": "TEXT",
            "notNull": false
          }
        ],
        "primaryKey": {
          "columnNames": [
            "id"
          ],
          "autoGenerate": true
        },
        "indices": [],
        "foreignKeys": []
      },
      {
        "tableName": "self",
        "createSql": "CREATE TABLE IF NOT EXISTS `${TABLE_NAME}` (`self_id` INTEGER PRIMARY KEY AUTOINCREMENT NOT NULL, `customer_id` INTEGER NOT NULL, `items_id` INTEGER NOT NULL, `own_qty` REAL NOT NULL, `other_qty` REAL NOT NULL)",
        "fields": [
          {
            "fieldPath": "self_id",
            "columnName": "self_id",
            "affinity": "INTEGER",
            "notNull": true
          },
          {
            "fieldPath": "customerId",
            "columnName": "customer_id",
            "affinity": "INTEGER",
            "notNull": true
          },
          {
            "fieldPath": "itemsid",
            "columnName": "items_id",
            "affinity": "INTEGER",
            "notNull": true
          },
          {
            "fieldPath": "ownQty",
            "columnName": "own_qty",
            "affinity": "REAL",
            "notNull": true
          },
          {
            "fieldPath": "other_qty",
            "columnName": "other_qty",
            "affinity": "REAL",
            "notNull": true
          }
        ],
        "primaryKey": {
          "columnNames": [
            "self_id"
          ],
          "autoGenerate": true
        },
        "indices": [],
        "foreignKeys": []
      },
      {
        "tableName": "self_update",
        "createSql": "CREATE TABLE IF NOT EXISTS `${TABLE_NAME}` (`self_update_id` INTEGER PRIMARY KEY AUTOINCREMENT NOT NULL, `customer_id` INTEGER NOT NULL, `updated` TEXT)",
        "fields": [
          {
            "fieldPath": "self_update_id",
            "columnName": "self_update_id",
            "affinity": "INTEGER",
            "notNull": true
          },
          {
            "fieldPath": "customer_id",
            "columnName": "customer_id",
            "affinity": "INTEGER",
            "notNull": true
          },
          {
            "fieldPath": "updated",
            "columnName": "updated",
            "affinity": "TEXT",
            "notNull": false
          }
        ],
        "primaryKey": {
          "columnNames": [
            "self_update_id"
          ],
          "autoGenerate": true
        },
        "indices": [],
        "foreignKeys": []
      }
    ],
    "views": [],
    "setupQueries": [
      "CREATE TABLE IF NOT EXISTS room_master_table (id INTEGER PRIMARY KEY,identity_hash TEXT)",
      "INSERT OR REPLACE INTO room_master_table (id,identity_hash) VALUES(42, 'bf9f23381f04103eeccd4a2f498b1228')"
    ]
  }
}